…
``` r
litters_data = janitor::clean_names(litters_data)
names(litters_data)
```

    ## [1] "x1" "x2" "x3" "x4" "x5" "x6" "x7" "x8"

``` r
litters_data
```

    ## # A tibble: 40 x 8
    ##    x1    x2                 x3    x4    x5    x6    x7    x8
    ##    <chr> <chr>           <dbl> <dbl> <dbl> <dbl> <dbl> <dbl>
    ##  1 Con8  #3/5/2/2/95      28.5  NA      20     8     0     8
    ##  2 Con8  #5/4/3/83/3      28    NA      19     9     0     8
    ##  3 Con8  #1/6/2/2/95-2    NA    NA      20     7     0     6
    ##  4 Con8  #3/5/3/83/3-3-2  NA    NA      20     8     0     8
    ##  5 Con8  #2/2/95/2        NA    NA      19     5     0     4
    ##  6 Con8  #3/6/2/2/95-3    NA    NA      20     7     0     7
    ##  7 Mod7  #59              17    33.4    19     8     0     5
    ##  8 Mod7  #103             21.4  42.1    19     9     1     9
    ##  9 Mod7  #1/82/3-2        NA    NA      19     6     0     6
    ## 10 Mod7  #3/83/3-2        NA    NA      19     8     0     8
    ## # … with 30 more rows
…
``` r
pups_data = janitor::clean_names(pups_data)
pups_data
```

    ## # A tibble: 313 x 6
    ##    litter_number   sex pd_ears pd_eyes pd_pivot pd_walk
    ##    <chr>         <dbl>   <dbl>   <dbl>    <dbl>   <dbl>
    ##  1 #85               1       4      13        7      11
    ##  2 #85               1       4      13        7      12
    ##  3 #1/2/95/2         1       5      13        7       9
    ##  4 #1/2/95/2         1       5      13        8      10
    ##  5 #5/5/3/83/3-3     1       5      13        8      10
    ##  6 #5/5/3/83/3-3     1       5      14        6       9
    ##  7 #5/4/2/95/2       1      NA      14        5       9
    ##  8 #4/2/95/3-3       1       4      13        6       8
    ##  9 #4/2/95/3-3       1       4      13        7       9
    ## 10 #2/2/95/3-2       1       4      NA        8      10
    ## # … with 303 more rows
…
